{
    "joints": [
        {
            "component": "Pelvis",
            "joint": {
                "child": "Pelvis",
                "parent": "IN"
            },
            "percentages": {
                "x": 0.5376959734560067,
                "y": 0.8858864197530864
            }
        },
        {
            "component": "Pelvis",
            "joint": {
                "child": "Left Leg",
                "parent": "Pelvis"
            },
            "percentages": {
                "x": 0.24869791666666666,
                "y": 0.21428148148148146
            }
        },
        {
            "component": "Pelvis",
            "joint": {
                "child": "Right Leg",
                "parent": "Pelvis"
            },
            "percentages": {
                "x": 0.7708151570431472,
                "y": 0.23403456790123456
            }
        }
    ],
    "textures": [
        {
            "component": "Pelvis",
            "id": 11
        }
    ]
}